Lab 9/lab9.log
Command: /home/users14/jlm7771/Documents/ece526LabSpring21/Lab9/./simv -l lab9.log
Chronologic VCS simulator copyright 1991-2017
Contains Synopsys proprietary information.
Compiler version N-2017.12-SP2-2_Full64; Runtime version N-2017.12-SP2-2_Full64;  May  1 22:23 2021
VCD+ Writer N-2017.12-SP2-2_Full64 Copyright (c) 1991-2017 by Synopsys Inc.
                   0, data_in = 00000000, clk = 0, wr_en = 1, rd_en = 0, rst = 1 | data_out = 00000000, empty = 1, a_e = 1, full = 0, a_f = 0, valid = x, of = 0, uf = 0, count =  0
                  20, data_in = 00000000, clk = 0, wr_en = 1, rd_en = 0, rst = 1 | data_out = 00000000, empty = 0, a_e = 1, full = 0, a_f = 0, valid = 0, of = 0, uf = 0, count =  1
                  40, data_in = 00000001, clk = 0, wr_en = 1, rd_en = 0, rst = 1 | data_out = 00000000, empty = 0, a_e = 1, full = 0, a_f = 0, valid = 0, of = 0, uf = 0, count =  2
                  60, data_in = 00000010, clk = 0, wr_en = 1, rd_en = 0, rst = 1 | data_out = 00000000, empty = 0, a_e = 0, full = 0, a_f = 0, valid = 0, of = 0, uf = 0, count =  3
                  80, data_in = 00000011, clk = 0, wr_en = 1, rd_en = 0, rst = 1 | data_out = 00000000, empty = 0, a_e = 0, full = 0, a_f = 0, valid = 0, of = 0, uf = 0, count =  4
                 100, data_in = 00000100, clk = 0, wr_en = 1, rd_en = 0, rst = 1 | data_out = 00000000, empty = 0, a_e = 0, full = 0, a_f = 0, valid = 0, of = 0, uf = 0, count =  5
                 120, data_in = 00000101, clk = 0, wr_en = 1, rd_en = 0, rst = 1 | data_out = 00000000, empty = 0, a_e = 0, full = 0, a_f = 0, valid = 0, of = 0, uf = 0, count =  6
                 140, data_in = 00000110, clk = 0, wr_en = 1, rd_en = 0, rst = 1 | data_out = 00000000, empty = 0, a_e = 0, full = 0, a_f = 0, valid = 0, of = 0, uf = 0, count =  7
                 160, data_in = 00000111, clk = 0, wr_en = 1, rd_en = 0, rst = 1 | data_out = 00000000, empty = 0, a_e = 0, full = 0, a_f = 0, valid = 0, of = 0, uf = 0, count =  8
                 180, data_in = 00001000, clk = 0, wr_en = 1, rd_en = 0, rst = 1 | data_out = 00000000, empty = 0, a_e = 0, full = 0, a_f = 0, valid = 0, of = 0, uf = 0, count =  9
                 200, data_in = 00001001, clk = 0, wr_en = 1, rd_en = 0, rst = 1 | data_out = 00000000, empty = 0, a_e = 0, full = 0, a_f = 0, valid = 0, of = 0, uf = 0, count = 10
                 220, data_in = 00001010, clk = 0, wr_en = 1, rd_en = 0, rst = 1 | data_out = 00000000, empty = 0, a_e = 0, full = 0, a_f = 0, valid = 0, of = 0, uf = 0, count = 11
                 240, data_in = 00001011, clk = 0, wr_en = 1, rd_en = 0, rst = 1 | data_out = 00000000, empty = 0, a_e = 0, full = 0, a_f = 0, valid = 0, of = 0, uf = 0, count = 12
                 260, data_in = 00001100, clk = 0, wr_en = 1, rd_en = 0, rst = 1 | data_out = 00000000, empty = 0, a_e = 0, full = 0, a_f = 0, valid = 0, of = 0, uf = 0, count = 13
                 280, data_in = 00001101, clk = 0, wr_en = 1, rd_en = 0, rst = 1 | data_out = 00000000, empty = 0, a_e = 0, full = 0, a_f = 0, valid = 0, of = 0, uf = 0, count = 14
                 300, data_in = 00001110, clk = 0, wr_en = 1, rd_en = 0, rst = 1 | data_out = 00000000, empty = 0, a_e = 0, full = 0, a_f = 0, valid = 0, of = 0, uf = 0, count = 15
                 320, data_in = 00001111, clk = 0, wr_en = 1, rd_en = 0, rst = 1 | data_out = 00000000, empty = 0, a_e = 0, full = 0, a_f = 0, valid = 0, of = 0, uf = 0, count = 16
                 340, data_in = 00010000, clk = 0, wr_en = 1, rd_en = 0, rst = 1 | data_out = 00000000, empty = 0, a_e = 0, full = 0, a_f = 0, valid = 0, of = 0, uf = 0, count = 17
                 360, data_in = 00010001, clk = 0, wr_en = 1, rd_en = 0, rst = 1 | data_out = 00000000, empty = 0, a_e = 0, full = 0, a_f = 0, valid = 0, of = 0, uf = 0, count = 18
                 380, data_in = 00010010, clk = 0, wr_en = 1, rd_en = 0, rst = 1 | data_out = 00000000, empty = 0, a_e = 0, full = 0, a_f = 0, valid = 0, of = 0, uf = 0, count = 19
                 400, data_in = 00010011, clk = 0, wr_en = 1, rd_en = 0, rst = 1 | data_out = 00000000, empty = 0, a_e = 0, full = 0, a_f = 0, valid = 0, of = 0, uf = 0, count = 20
                 420, data_in = 00010100, clk = 0, wr_en = 1, rd_en = 0, rst = 1 | data_out = 00000000, empty = 0, a_e = 0, full = 0, a_f = 0, valid = 0, of = 0, uf = 0, count = 21
                 440, data_in = 00010101, clk = 0, wr_en = 1, rd_en = 0, rst = 1 | data_out = 00000000, empty = 0, a_e = 0, full = 0, a_f = 0, valid = 0, of = 0, uf = 0, count = 22
                 460, data_in = 00010110, clk = 0, wr_en = 1, rd_en = 0, rst = 1 | data_out = 00000000, empty = 0, a_e = 0, full = 0, a_f = 0, valid = 0, of = 0, uf = 0, count = 23
                 480, data_in = 00010111, clk = 0, wr_en = 1, rd_en = 0, rst = 1 | data_out = 00000000, empty = 0, a_e = 0, full = 0, a_f = 0, valid = 0, of = 0, uf = 0, count = 24
                 500, data_in = 00011000, clk = 0, wr_en = 1, rd_en = 0, rst = 1 | data_out = 00000000, empty = 0, a_e = 0, full = 0, a_f = 0, valid = 0, of = 0, uf = 0, count = 25
                 520, data_in = 00011001, clk = 0, wr_en = 1, rd_en = 0, rst = 1 | data_out = 00000000, empty = 0, a_e = 0, full = 0, a_f = 0, valid = 0, of = 0, uf = 0, count = 26
                 540, data_in = 00011010, clk = 0, wr_en = 1, rd_en = 0, rst = 1 | data_out = 00000000, empty = 0, a_e = 0, full = 0, a_f = 0, valid = 0, of = 0, uf = 0, count = 27
                 560, data_in = 00011011, clk = 0, wr_en = 1, rd_en = 0, rst = 1 | data_out = 00000000, empty = 0, a_e = 0, full = 0, a_f = 0, valid = 0, of = 0, uf = 0, count = 28
                 580, data_in = 00011100, clk = 0, wr_en = 1, rd_en = 0, rst = 1 | data_out = 00000000, empty = 0, a_e = 0, full = 0, a_f = 0, valid = 0, of = 0, uf = 0, count = 29
                 600, data_in = 00011101, clk = 0, wr_en = 1, rd_en = 0, rst = 1 | data_out = 00000000, empty = 0, a_e = 0, full = 0, a_f = 1, valid = 0, of = 0, uf = 0, count = 30
                 620, data_in = 00011110, clk = 0, wr_en = 1, rd_en = 0, rst = 1 | data_out = 00000000, empty = 0, a_e = 0, full = 0, a_f = 1, valid = 0, of = 0, uf = 0, count = 31
                 640, data_in = 00011111, clk = 0, wr_en = 0, rd_en = 1, rst = 1 | data_out = 00000000, empty = 0, a_e = 0, full = 1, a_f = 1, valid = 0, of = 0, uf = 0, count = 32
                 660, data_in = 00011111, clk = 0, wr_en = 0, rd_en = 1, rst = 1 | data_out = 00000000, empty = 0, a_e = 0, full = 0, a_f = 1, valid = 1, of = 0, uf = 0, count = 31
                 680, data_in = 00011111, clk = 0, wr_en = 0, rd_en = 1, rst = 1 | data_out = 00000000, empty = 0, a_e = 0, full = 0, a_f = 1, valid = 1, of = 0, uf = 0, count = 30
                 700, data_in = 00011111, clk = 0, wr_en = 0, rd_en = 1, rst = 1 | data_out = 00000001, empty = 0, a_e = 0, full = 0, a_f = 0, valid = 1, of = 0, uf = 0, count = 29
                 720, data_in = 00011111, clk = 0, wr_en = 0, rd_en = 1, rst = 1 | data_out = 00000010, empty = 0, a_e = 0, full = 0, a_f = 0, valid = 1, of = 0, uf = 0, count = 28
                 740, data_in = 00011111, clk = 0, wr_en = 0, rd_en = 1, rst = 1 | data_out = 00000011, empty = 0, a_e = 0, full = 0, a_f = 0, valid = 1, of = 0, uf = 0, count = 27
                 760, data_in = 00011111, clk = 0, wr_en = 0, rd_en = 1, rst = 1 | data_out = 00000100, empty = 0, a_e = 0, full = 0, a_f = 0, valid = 1, of = 0, uf = 0, count = 26
                 780, data_in = 00011111, clk = 0, wr_en = 0, rd_en = 1, rst = 1 | data_out = 00000101, empty = 0, a_e = 0, full = 0, a_f = 0, valid = 1, of = 0, uf = 0, count = 25
                 800, data_in = 00011111, clk = 0, wr_en = 0, rd_en = 1, rst = 1 | data_out = 00000110, empty = 0, a_e = 0, full = 0, a_f = 0, valid = 1, of = 0, uf = 0, count = 24
                 820, data_in = 00011111, clk = 0, wr_en = 0, rd_en = 1, rst = 1 | data_out = 00000111, empty = 0, a_e = 0, full = 0, a_f = 0, valid = 1, of = 0, uf = 0, count = 23
                 840, data_in = 00011111, clk = 0, wr_en = 0, rd_en = 1, rst = 1 | data_out = 00001000, empty = 0, a_e = 0, full = 0, a_f = 0, valid = 1, of = 0, uf = 0, count = 22
                 860, data_in = 00011111, clk = 0, wr_en = 0, rd_en = 1, rst = 1 | data_out = 00001001, empty = 0, a_e = 0, full = 0, a_f = 0, valid = 1, of = 0, uf = 0, count = 21
                 880, data_in = 00011111, clk = 0, wr_en = 0, rd_en = 1, rst = 1 | data_out = 00001010, empty = 0, a_e = 0, full = 0, a_f = 0, valid = 1, of = 0, uf = 0, count = 20
                 900, data_in = 00011111, clk = 0, wr_en = 0, rd_en = 1, rst = 1 | data_out = 00001011, empty = 0, a_e = 0, full = 0, a_f = 0, valid = 1, of = 0, uf = 0, count = 19
                 920, data_in = 00011111, clk = 0, wr_en = 0, rd_en = 1, rst = 1 | data_out = 00001100, empty = 0, a_e = 0, full = 0, a_f = 0, valid = 1, of = 0, uf = 0, count = 18
                 940, data_in = 00011111, clk = 0, wr_en = 0, rd_en = 1, rst = 1 | data_out = 00001101, empty = 0, a_e = 0, full = 0, a_f = 0, valid = 1, of = 0, uf = 0, count = 17
                 960, data_in = 00011111, clk = 0, wr_en = 0, rd_en = 1, rst = 1 | data_out = 00001110, empty = 0, a_e = 0, full = 0, a_f = 0, valid = 1, of = 0, uf = 0, count = 16
                 980, data_in = 00011111, clk = 0, wr_en = 0, rd_en = 1, rst = 1 | data_out = 00001111, empty = 0, a_e = 0, full = 0, a_f = 0, valid = 1, of = 0, uf = 0, count = 15
                1000, data_in = 00011111, clk = 0, wr_en = 0, rd_en = 1, rst = 1 | data_out = 00010000, empty = 0, a_e = 0, full = 0, a_f = 0, valid = 1, of = 0, uf = 0, count = 14
                1020, data_in = 00011111, clk = 0, wr_en = 0, rd_en = 1, rst = 1 | data_out = 00010001, empty = 0, a_e = 0, full = 0, a_f = 0, valid = 1, of = 0, uf = 0, count = 13
                1040, data_in = 00011111, clk = 0, wr_en = 0, rd_en = 1, rst = 1 | data_out = 00010010, empty = 0, a_e = 0, full = 0, a_f = 0, valid = 1, of = 0, uf = 0, count = 12
                1060, data_in = 00011111, clk = 0, wr_en = 0, rd_en = 1, rst = 1 | data_out = 00010011, empty = 0, a_e = 0, full = 0, a_f = 0, valid = 1, of = 0, uf = 0, count = 11
                1080, data_in = 00011111, clk = 0, wr_en = 0, rd_en = 1, rst = 1 | data_out = 00010100, empty = 0, a_e = 0, full = 0, a_f = 0, valid = 1, of = 0, uf = 0, count = 10
                1100, data_in = 00011111, clk = 0, wr_en = 0, rd_en = 1, rst = 1 | data_out = 00010101, empty = 0, a_e = 0, full = 0, a_f = 0, valid = 1, of = 0, uf = 0, count =  9
                1120, data_in = 00011111, clk = 0, wr_en = 0, rd_en = 1, rst = 1 | data_out = 00010110, empty = 0, a_e = 0, full = 0, a_f = 0, valid = 1, of = 0, uf = 0, count =  8
                1140, data_in = 00011111, clk = 0, wr_en = 0, rd_en = 1, rst = 1 | data_out = 00010111, empty = 0, a_e = 0, full = 0, a_f = 0, valid = 1, of = 0, uf = 0, count =  7
                1160, data_in = 00011111, clk = 0, wr_en = 0, rd_en = 1, rst = 1 | data_out = 00011000, empty = 0, a_e = 0, full = 0, a_f = 0, valid = 1, of = 0, uf = 0, count =  6
                1180, data_in = 00011111, clk = 0, wr_en = 0, rd_en = 1, rst = 1 | data_out = 00011001, empty = 0, a_e = 0, full = 0, a_f = 0, valid = 1, of = 0, uf = 0, count =  5
                1200, data_in = 00011111, clk = 0, wr_en = 0, rd_en = 1, rst = 1 | data_out = 00011010, empty = 0, a_e = 0, full = 0, a_f = 0, valid = 1, of = 0, uf = 0, count =  4
                1220, data_in = 00011111, clk = 0, wr_en = 0, rd_en = 1, rst = 1 | data_out = 00011011, empty = 0, a_e = 0, full = 0, a_f = 0, valid = 1, of = 0, uf = 0, count =  3
                1240, data_in = 00011111, clk = 0, wr_en = 0, rd_en = 1, rst = 1 | data_out = 00011100, empty = 0, a_e = 1, full = 0, a_f = 0, valid = 1, of = 0, uf = 0, count =  2
                1260, data_in = 00011111, clk = 0, wr_en = 0, rd_en = 1, rst = 1 | data_out = 00011101, empty = 0, a_e = 1, full = 0, a_f = 0, valid = 1, of = 0, uf = 0, count =  1
                1280, data_in = 00011111, clk = 0, wr_en = 0, rd_en = 1, rst = 1 | data_out = 00011110, empty = 1, a_e = 1, full = 0, a_f = 0, valid = 1, of = 0, uf = 0, count =  0
                1300, data_in = 00011111, clk = 0, wr_en = 0, rd_en = 1, rst = 1 | data_out = 00011110, empty = 1, a_e = 1, full = 0, a_f = 0, valid = 0, of = 0, uf = 1, count =  0
                1320, data_in = 00011111, clk = 0, wr_en = 0, rd_en = 1, rst = 1 | data_out = 00011110, empty = 1, a_e = 1, full = 0, a_f = 0, valid = 0, of = 0, uf = 1, count =  0
                1340, data_in = 00011111, clk = 0, wr_en = 0, rd_en = 1, rst = 1 | data_out = 00011110, empty = 1, a_e = 1, full = 0, a_f = 0, valid = 0, of = 0, uf = 1, count =  0
                1360, data_in = 00011111, clk = 0, wr_en = 0, rd_en = 1, rst = 1 | data_out = 00011110, empty = 1, a_e = 1, full = 0, a_f = 0, valid = 0, of = 0, uf = 1, count =  0
                1380, data_in = 00011111, clk = 0, wr_en = 0, rd_en = 1, rst = 1 | data_out = 00011110, empty = 1, a_e = 1, full = 0, a_f = 0, valid = 0, of = 0, uf = 1, count =  0
                1400, data_in = 00011111, clk = 0, wr_en = 0, rd_en = 1, rst = 1 | data_out = 00011110, empty = 1, a_e = 1, full = 0, a_f = 0, valid = 0, of = 0, uf = 1, count =  0
                1420, data_in = 00011111, clk = 0, wr_en = 0, rd_en = 1, rst = 1 | data_out = 00011110, empty = 1, a_e = 1, full = 0, a_f = 0, valid = 0, of = 0, uf = 1, count =  0
                1440, data_in = 00011111, clk = 0, wr_en = 0, rd_en = 1, rst = 1 | data_out = 00011110, empty = 1, a_e = 1, full = 0, a_f = 0, valid = 0, of = 0, uf = 1, count =  0
                1460, data_in = 00011111, clk = 0, wr_en = 0, rd_en = 1, rst = 1 | data_out = 00011110, empty = 1, a_e = 1, full = 0, a_f = 0, valid = 0, of = 0, uf = 1, count =  0
                1480, data_in = 00011111, clk = 0, wr_en = 0, rd_en = 1, rst = 1 | data_out = 00011110, empty = 1, a_e = 1, full = 0, a_f = 0, valid = 0, of = 0, uf = 1, count =  0
                1500, data_in = 00011111, clk = 0, wr_en = 0, rd_en = 1, rst = 1 | data_out = 00011110, empty = 1, a_e = 1, full = 0, a_f = 0, valid = 0, of = 0, uf = 1, count =  0
                1520, data_in = 00011111, clk = 0, wr_en = 0, rd_en = 1, rst = 1 | data_out = 00011110, empty = 1, a_e = 1, full = 0, a_f = 0, valid = 0, of = 0, uf = 1, count =  0
                1540, data_in = 00011111, clk = 0, wr_en = 0, rd_en = 1, rst = 1 | data_out = 00011110, empty = 1, a_e = 1, full = 0, a_f = 0, valid = 0, of = 0, uf = 1, count =  0
                1560, data_in = 00011111, clk = 0, wr_en = 0, rd_en = 1, rst = 1 | data_out = 00011110, empty = 1, a_e = 1, full = 0, a_f = 0, valid = 0, of = 0, uf = 1, count =  0
                1580, data_in = 00011111, clk = 0, wr_en = 0, rd_en = 1, rst = 1 | data_out = 00011110, empty = 1, a_e = 1, full = 0, a_f = 0, valid = 0, of = 0, uf = 1, count =  0
                1600, data_in = 00011111, clk = 0, wr_en = 0, rd_en = 1, rst = 1 | data_out = 00011110, empty = 1, a_e = 1, full = 0, a_f = 0, valid = 0, of = 0, uf = 1, count =  0
                1620, data_in = 00011111, clk = 0, wr_en = 0, rd_en = 1, rst = 1 | data_out = 00011110, empty = 1, a_e = 1, full = 0, a_f = 0, valid = 0, of = 0, uf = 1, count =  0
                1640, data_in = 00011111, clk = 0, wr_en = 0, rd_en = 1, rst = 1 | data_out = 00011110, empty = 1, a_e = 1, full = 0, a_f = 0, valid = 0, of = 0, uf = 1, count =  0
                1660, data_in = 00011111, clk = 0, wr_en = 0, rd_en = 1, rst = 1 | data_out = 00011110, empty = 1, a_e = 1, full = 0, a_f = 0, valid = 0, of = 0, uf = 1, count =  0
                1680, data_in = 00011111, clk = 0, wr_en = 0, rd_en = 1, rst = 1 | data_out = 00011110, empty = 1, a_e = 1, full = 0, a_f = 0, valid = 0, of = 0, uf = 1, count =  0
                1700, data_in = 00011111, clk = 0, wr_en = 0, rd_en = 1, rst = 1 | data_out = 00011110, empty = 1, a_e = 1, full = 0, a_f = 0, valid = 0, of = 0, uf = 1, count =  0
                1720, data_in = 00011111, clk = 0, wr_en = 0, rd_en = 1, rst = 1 | data_out = 00011110, empty = 1, a_e = 1, full = 0, a_f = 0, valid = 0, of = 0, uf = 1, count =  0
                1740, data_in = 00011111, clk = 0, wr_en = 0, rd_en = 1, rst = 1 | data_out = 00011110, empty = 1, a_e = 1, full = 0, a_f = 0, valid = 0, of = 0, uf = 1, count =  0
                1760, data_in = 00011111, clk = 0, wr_en = 0, rd_en = 1, rst = 1 | data_out = 00011110, empty = 1, a_e = 1, full = 0, a_f = 0, valid = 0, of = 0, uf = 1, count =  0
                1780, data_in = 00011111, clk = 0, wr_en = 0, rd_en = 1, rst = 1 | data_out = 00011110, empty = 1, a_e = 1, full = 0, a_f = 0, valid = 0, of = 0, uf = 1, count =  0
                1800, data_in = 00011111, clk = 0, wr_en = 0, rd_en = 1, rst = 1 | data_out = 00011110, empty = 1, a_e = 1, full = 0, a_f = 0, valid = 0, of = 0, uf = 1, count =  0
                1820, data_in = 00011111, clk = 0, wr_en = 0, rd_en = 1, rst = 1 | data_out = 00011110, empty = 1, a_e = 1, full = 0, a_f = 0, valid = 0, of = 0, uf = 1, count =  0
                1840, data_in = 00011111, clk = 0, wr_en = 0, rd_en = 1, rst = 1 | data_out = 00011110, empty = 1, a_e = 1, full = 0, a_f = 0, valid = 0, of = 0, uf = 1, count =  0
                1860, data_in = 00011111, clk = 0, wr_en = 0, rd_en = 1, rst = 1 | data_out = 00011110, empty = 1, a_e = 1, full = 0, a_f = 0, valid = 0, of = 0, uf = 1, count =  0
                1880, data_in = 00011111, clk = 0, wr_en = 0, rd_en = 1, rst = 1 | data_out = 00011110, empty = 1, a_e = 1, full = 0, a_f = 0, valid = 0, of = 0, uf = 1, count =  0
                1900, data_in = 00011111, clk = 0, wr_en = 0, rd_en = 1, rst = 1 | data_out = 00011110, empty = 1, a_e = 1, full = 0, a_f = 0, valid = 0, of = 0, uf = 1, count =  0
                1920, data_in = 00011111, clk = 0, wr_en = 0, rd_en = 1, rst = 1 | data_out = 00011110, empty = 1, a_e = 1, full = 0, a_f = 0, valid = 0, of = 0, uf = 1, count =  0
                1940, data_in = 00011111, clk = 0, wr_en = 1, rd_en = 0, rst = 1 | data_out = 00011110, empty = 1, a_e = 1, full = 0, a_f = 0, valid = 0, of = 0, uf = 1, count =  0
                1960, data_in = 00011111, clk = 0, wr_en = 1, rd_en = 1, rst = 1 | data_out = 00011110, empty = 0, a_e = 1, full = 0, a_f = 0, valid = 0, of = 0, uf = 0, count =  1
                1980, data_in = 00000000, clk = 0, wr_en = 1, rd_en = 1, rst = 1 | data_out = 00011111, empty = 0, a_e = 1, full = 0, a_f = 0, valid = 1, of = 0, uf = 0, count =  1
                2000, data_in = 00000001, clk = 0, wr_en = 1, rd_en = 1, rst = 1 | data_out = 00011111, empty = 0, a_e = 1, full = 0, a_f = 0, valid = 1, of = 0, uf = 0, count =  1
                2020, data_in = 00000010, clk = 0, wr_en = 1, rd_en = 1, rst = 1 | data_out = 00000000, empty = 0, a_e = 1, full = 0, a_f = 0, valid = 1, of = 0, uf = 0, count =  1
                2040, data_in = 00000011, clk = 0, wr_en = 1, rd_en = 1, rst = 1 | data_out = 00000001, empty = 0, a_e = 1, full = 0, a_f = 0, valid = 1, of = 0, uf = 0, count =  1
                2060, data_in = 00000100, clk = 0, wr_en = 1, rd_en = 1, rst = 1 | data_out = 00000010, empty = 0, a_e = 1, full = 0, a_f = 0, valid = 1, of = 0, uf = 0, count =  1
                2080, data_in = 00000101, clk = 0, wr_en = 1, rd_en = 1, rst = 1 | data_out = 00000011, empty = 0, a_e = 1, full = 0, a_f = 0, valid = 1, of = 0, uf = 0, count =  1
                2100, data_in = 00000110, clk = 0, wr_en = 1, rd_en = 1, rst = 1 | data_out = 00000100, empty = 0, a_e = 1, full = 0, a_f = 0, valid = 1, of = 0, uf = 0, count =  1
                2120, data_in = 00000111, clk = 0, wr_en = 1, rd_en = 1, rst = 1 | data_out = 00000101, empty = 0, a_e = 1, full = 0, a_f = 0, valid = 1, of = 0, uf = 0, count =  1
                2140, data_in = 00001000, clk = 0, wr_en = 1, rd_en = 1, rst = 1 | data_out = 00000110, empty = 0, a_e = 1, full = 0, a_f = 0, valid = 1, of = 0, uf = 0, count =  1
                2160, data_in = 00001001, clk = 0, wr_en = 1, rd_en = 1, rst = 1 | data_out = 00000111, empty = 0, a_e = 1, full = 0, a_f = 0, valid = 1, of = 0, uf = 0, count =  1
                2180, data_in = 00001010, clk = 0, wr_en = 1, rd_en = 1, rst = 1 | data_out = 00001000, empty = 0, a_e = 1, full = 0, a_f = 0, valid = 1, of = 0, uf = 0, count =  1
                2200, data_in = 00001011, clk = 0, wr_en = 1, rd_en = 1, rst = 1 | data_out = 00001001, empty = 0, a_e = 1, full = 0, a_f = 0, valid = 1, of = 0, uf = 0, count =  1
                2220, data_in = 00001100, clk = 0, wr_en = 1, rd_en = 1, rst = 1 | data_out = 00001010, empty = 0, a_e = 1, full = 0, a_f = 0, valid = 1, of = 0, uf = 0, count =  1
                2240, data_in = 00001101, clk = 0, wr_en = 1, rd_en = 1, rst = 1 | data_out = 00001011, empty = 0, a_e = 1, full = 0, a_f = 0, valid = 1, of = 0, uf = 0, count =  1
                2260, data_in = 00001110, clk = 0, wr_en = 1, rd_en = 1, rst = 1 | data_out = 00001100, empty = 0, a_e = 1, full = 0, a_f = 0, valid = 1, of = 0, uf = 0, count =  1
                2280, data_in = 00001111, clk = 0, wr_en = 1, rd_en = 1, rst = 1 | data_out = 00001101, empty = 0, a_e = 1, full = 0, a_f = 0, valid = 1, of = 0, uf = 0, count =  1
                2300, data_in = 00010000, clk = 0, wr_en = 1, rd_en = 1, rst = 1 | data_out = 00001110, empty = 0, a_e = 1, full = 0, a_f = 0, valid = 1, of = 0, uf = 0, count =  1
                2320, data_in = 00010001, clk = 0, wr_en = 1, rd_en = 1, rst = 1 | data_out = 00001111, empty = 0, a_e = 1, full = 0, a_f = 0, valid = 1, of = 0, uf = 0, count =  1
                2340, data_in = 00010010, clk = 0, wr_en = 1, rd_en = 1, rst = 1 | data_out = 00010000, empty = 0, a_e = 1, full = 0, a_f = 0, valid = 1, of = 0, uf = 0, count =  1
                2360, data_in = 00010011, clk = 0, wr_en = 1, rd_en = 1, rst = 1 | data_out = 00010001, empty = 0, a_e = 1, full = 0, a_f = 0, valid = 1, of = 0, uf = 0, count =  1
                2380, data_in = 00010100, clk = 0, wr_en = 1, rd_en = 1, rst = 1 | data_out = 00010010, empty = 0, a_e = 1, full = 0, a_f = 0, valid = 1, of = 0, uf = 0, count =  1
                2400, data_in = 00010101, clk = 0, wr_en = 1, rd_en = 1, rst = 1 | data_out = 00010011, empty = 0, a_e = 1, full = 0, a_f = 0, valid = 1, of = 0, uf = 0, count =  1
                2420, data_in = 00010110, clk = 0, wr_en = 1, rd_en = 1, rst = 1 | data_out = 00010100, empty = 0, a_e = 1, full = 0, a_f = 0, valid = 1, of = 0, uf = 0, count =  1
                2440, data_in = 00010111, clk = 0, wr_en = 1, rd_en = 1, rst = 1 | data_out = 00010101, empty = 0, a_e = 1, full = 0, a_f = 0, valid = 1, of = 0, uf = 0, count =  1
                2460, data_in = 00011000, clk = 0, wr_en = 1, rd_en = 1, rst = 1 | data_out = 00010110, empty = 0, a_e = 1, full = 0, a_f = 0, valid = 1, of = 0, uf = 0, count =  1
                2480, data_in = 00011001, clk = 0, wr_en = 1, rd_en = 1, rst = 1 | data_out = 00010111, empty = 0, a_e = 1, full = 0, a_f = 0, valid = 1, of = 0, uf = 0, count =  1
                2500, data_in = 00011010, clk = 0, wr_en = 1, rd_en = 1, rst = 1 | data_out = 00011000, empty = 0, a_e = 1, full = 0, a_f = 0, valid = 1, of = 0, uf = 0, count =  1
                2520, data_in = 00011011, clk = 0, wr_en = 1, rd_en = 1, rst = 1 | data_out = 00011001, empty = 0, a_e = 1, full = 0, a_f = 0, valid = 1, of = 0, uf = 0, count =  1
                2540, data_in = 00011100, clk = 0, wr_en = 1, rd_en = 1, rst = 1 | data_out = 00011010, empty = 0, a_e = 1, full = 0, a_f = 0, valid = 1, of = 0, uf = 0, count =  1
                2560, data_in = 00011101, clk = 0, wr_en = 1, rd_en = 1, rst = 1 | data_out = 00011011, empty = 0, a_e = 1, full = 0, a_f = 0, valid = 1, of = 0, uf = 0, count =  1
                2580, data_in = 00011110, clk = 0, wr_en = 1, rd_en = 1, rst = 1 | data_out = 00011100, empty = 0, a_e = 1, full = 0, a_f = 0, valid = 1, of = 0, uf = 0, count =  1
                2600, data_in = 00011111, clk = 0, wr_en = 1, rd_en = 1, rst = 1 | data_out = 00011101, empty = 0, a_e = 1, full = 0, a_f = 0, valid = 1, of = 0, uf = 0, count =  1
                2640, data_in = 00000000, clk = 0, wr_en = 1, rd_en = 0, rst = 1 | data_out = 00011110, empty = 0, a_e = 1, full = 0, a_f = 0, valid = 0, of = 0, uf = 0, count =  2
                2660, data_in = 00000001, clk = 0, wr_en = 1, rd_en = 0, rst = 1 | data_out = 00011110, empty = 0, a_e = 0, full = 0, a_f = 0, valid = 0, of = 0, uf = 0, count =  3
                2680, data_in = 00000010, clk = 0, wr_en = 1, rd_en = 0, rst = 1 | data_out = 00011110, empty = 0, a_e = 0, full = 0, a_f = 0, valid = 0, of = 0, uf = 0, count =  4
                2700, data_in = 00000011, clk = 0, wr_en = 1, rd_en = 0, rst = 1 | data_out = 00011110, empty = 0, a_e = 0, full = 0, a_f = 0, valid = 0, of = 0, uf = 0, count =  5
                2720, data_in = 00000100, clk = 0, wr_en = 1, rd_en = 0, rst = 1 | data_out = 00011110, empty = 0, a_e = 0, full = 0, a_f = 0, valid = 0, of = 0, uf = 0, count =  6
                2740, data_in = 00000101, clk = 0, wr_en = 1, rd_en = 0, rst = 1 | data_out = 00011110, empty = 0, a_e = 0, full = 0, a_f = 0, valid = 0, of = 0, uf = 0, count =  7
                2760, data_in = 00000110, clk = 0, wr_en = 1, rd_en = 0, rst = 1 | data_out = 00011110, empty = 0, a_e = 0, full = 0, a_f = 0, valid = 0, of = 0, uf = 0, count =  8
                2780, data_in = 00000111, clk = 0, wr_en = 1, rd_en = 0, rst = 1 | data_out = 00011110, empty = 0, a_e = 0, full = 0, a_f = 0, valid = 0, of = 0, uf = 0, count =  9
                2800, data_in = 00001000, clk = 0, wr_en = 1, rd_en = 0, rst = 1 | data_out = 00011110, empty = 0, a_e = 0, full = 0, a_f = 0, valid = 0, of = 0, uf = 0, count = 10
                2820, data_in = 00001001, clk = 0, wr_en = 1, rd_en = 0, rst = 1 | data_out = 00011110, empty = 0, a_e = 0, full = 0, a_f = 0, valid = 0, of = 0, uf = 0, count = 11
                2840, data_in = 00001010, clk = 0, wr_en = 1, rd_en = 0, rst = 1 | data_out = 00011110, empty = 0, a_e = 0, full = 0, a_f = 0, valid = 0, of = 0, uf = 0, count = 12
                2860, data_in = 00001011, clk = 0, wr_en = 1, rd_en = 0, rst = 1 | data_out = 00011110, empty = 0, a_e = 0, full = 0, a_f = 0, valid = 0, of = 0, uf = 0, count = 13
                2880, data_in = 00001100, clk = 0, wr_en = 1, rd_en = 0, rst = 1 | data_out = 00011110, empty = 0, a_e = 0, full = 0, a_f = 0, valid = 0, of = 0, uf = 0, count = 14
                2900, data_in = 00001101, clk = 0, wr_en = 1, rd_en = 0, rst = 1 | data_out = 00011110, empty = 0, a_e = 0, full = 0, a_f = 0, valid = 0, of = 0, uf = 0, count = 15
                2920, data_in = 00001110, clk = 0, wr_en = 1, rd_en = 0, rst = 1 | data_out = 00011110, empty = 0, a_e = 0, full = 0, a_f = 0, valid = 0, of = 0, uf = 0, count = 16
                2940, data_in = 00001111, clk = 0, wr_en = 1, rd_en = 0, rst = 1 | data_out = 00011110, empty = 0, a_e = 0, full = 0, a_f = 0, valid = 0, of = 0, uf = 0, count = 17
                2960, data_in = 00010000, clk = 0, wr_en = 1, rd_en = 0, rst = 1 | data_out = 00011110, empty = 0, a_e = 0, full = 0, a_f = 0, valid = 0, of = 0, uf = 0, count = 18
                2980, data_in = 00010001, clk = 0, wr_en = 1, rd_en = 0, rst = 1 | data_out = 00011110, empty = 0, a_e = 0, full = 0, a_f = 0, valid = 0, of = 0, uf = 0, count = 19
                3000, data_in = 00010010, clk = 0, wr_en = 1, rd_en = 0, rst = 1 | data_out = 00011110, empty = 0, a_e = 0, full = 0, a_f = 0, valid = 0, of = 0, uf = 0, count = 20
                3020, data_in = 00010011, clk = 0, wr_en = 1, rd_en = 0, rst = 1 | data_out = 00011110, empty = 0, a_e = 0, full = 0, a_f = 0, valid = 0, of = 0, uf = 0, count = 21
